{
    "m_Dictionary": {
        "m_DictionaryValues": [
            {
                "type": "System.Boolean, mscorlib, Version=4.0.0.0, Culture=neutral, PublicKeyToken=b77a5c561934e089",
                "key": "experimental.enabled",
                "value": "{\"m_Value\":false}"
            },
            {
                "type": "System.Boolean, mscorlib, Version=4.0.0.0, Culture=neutral, PublicKeyToken=b77a5c561934e089",
                "key": "lightmapping.autoUnwrapLightmapUV",
                "value": "{\"m_Value\":true}"
            },
            {
                "type": "System.Boolean, mscorlib, Version=4.0.0.0, Culture=neutral, PublicKeyToken=b77a5c561934e089",
                "key": "editor.toolbarIconGUI",
                "value": "{\"m_Value\":false}"
            },
            {
                "type": "System.Boolean, mscorlib, Version=4.0.0.0, Culture=neutral, PublicKeyToken=b77a5c561934e089",
                "key": "UnityEngine.ProBuilder.ProBuilderEditor-isUtilityWindow",
                "value": "{\"m_Value\":false}"
            },
            {
                "type": "System.Boolean, mscorlib, Version=4.0.0.0, Culture=neutral, PublicKeyToken=b77a5c561934e089",
                "key": "editor.backFaceSelectEnabled",
                "value": "{\"m_Value\":false}"
            },
            {
                "type": "System.Boolean, mscorlib, Version=4.0.0.0, Culture=neutral, PublicKeyToken=b77a5c561934e089",
                "key": "editor.showSceneInfo",
                "value": "{\"m_Value\":false}"
            },
            {
                "type": "System.Boolean, mscorlib, Version=4.0.0.0, Culture=neutral, PublicKeyToken=b77a5c561934e089",
                "key": "ShapeComponent.ResetSettings",
                "value": "{\"m_Value\":false}"
            },
            {
                "type": "System.Boolean, mscorlib, Version=4.0.0.0, Culture=neutral, PublicKeyToken=b77a5c561934e089",
                "key": "editor.showEditorNotifications",
                "value": "{\"m_Value\":false}"
            },
            {
                "type": "System.Boolean, mscorlib, Version=4.0.0.0, Culture=neutral, PublicKeyToken=b77a5c561934e089",
                "key": "ShapeComponent.SettingsEnabled",
                "value": "{\"m_Value\":true}"
            },
            {
                "type": "System.Boolean, mscorlib, Version=4.0.0.0, Culture=neutral, PublicKeyToken=b77a5c561934e089",
                "key": "mesh.newShapesSnapToGrid",
                "value": "{\"m_Value\":true}"
            },
            {
                "type": "System.Boolean, mscorlib, Version=4.0.0.0, Culture=neutral, PublicKeyToken=b77a5c561934e089",
                "key": "mesh.meshColliderIsConvex",
                "value": "{\"m_Value\":false}"
            },
            {
                "type": "System.Boolean, mscorlib, Version=4.0.0.0, Culture=neutral, PublicKeyToken=b77a5c561934e089",
                "key": "editor.autoRecalculateCollisions",
                "value": "{\"m_Value\":false}"
            },
            {
                "type": "System.Boolean, mscorlib, Version=4.0.0.0, Culture=neutral, PublicKeyToken=b77a5c561934e089",
                "key": "editor.stripProBuilderScriptsOnBuild",
                "value": "{\"m_Value\":true}"
            },
            {
                "type": "System.Boolean, mscorlib, Version=4.0.0.0, Culture=neutral, PublicKeyToken=b77a5c561934e089",
                "key": "editor.extrudeEdgesAsGroup",
                "value": "{\"m_Value\":true}"
            },
            {
                "type": "System.Boolean, mscorlib, Version=4.0.0.0, Culture=neutral, PublicKeyToken=b77a5c561934e089",
                "key": "UVEditor.showPreviewMaterial",
                "value": "{\"m_Value\":true}"
            },
            {
                "type": "System.Boolean, mscorlib, Version=4.0.0.0, Culture=neutral, PublicKeyToken=b77a5c561934e089",
                "key": "smoothing.showPreview",
                "value": "{\"m_Value\":false}"
            },
            {
                "type": "System.Boolean, mscorlib, Version=4.0.0.0, Culture=neutral, PublicKeyToken=b77a5c561934e089",
                "key": "smoothing.showNormals",
                "value": "{\"m_Value\":false}"
            },
            {
                "type": "System.Boolean, mscorlib, Version=4.0.0.0, Culture=neutral, PublicKeyToken=b77a5c561934e089",
                "key": "smoothing.showSettings",
                "value": "{\"m_Value\":false}"
            },
            {
                "type": "System.Boolean, mscorlib, Version=4.0.0.0, Culture=neutral, PublicKeyToken=b77a5c561934e089",
                "key": "smoothing.showHelp",
                "value": "{\"m_Value\":false}"
            },
            {
                "type": "UnityEngine.ProBuilder.LogLevel, Unity.ProBuilder, Version=0.0.0.0, Culture=neutral, PublicKeyToken=null",
                "key": "log.level",
                "value": "{\"m_Value\":3}"
            },
            {
                "type": "UnityEngine.ProBuilder.LogOutput, Unity.ProBuilder, Version=0.0.0.0, Culture=neutral, PublicKeyToken=null",
                "key": "log.output",
                "value": "{\"m_Value\":1}"
            },
            {
                "type": "System.String, mscorlib, Version=4.0.0.0, Culture=neutral, PublicKeyToken=b77a5c561934e089",
                "key": "log.path",
                "value": "{\"m_Value\":\"ProBuilderLog.txt\"}"
            },
            {
                "type": "System.String, mscorlib, Version=4.0.0.0, Culture=neutral, PublicKeyToken=b77a5c561934e089",
                "key": "editor.materialPalettePath",
                "value": "{\"m_Value\":\"Assets/ProBuilder Data/Default Material Palette.asset\"}"
            },
            {
                "type": "System.String, mscorlib, Version=4.0.0.0, Culture=neutral, PublicKeyToken=b77a5c561934e089",
                "key": "VertexColorPalette.previousColorPalette",
                "value": "{\"m_Value\":\"Assets/ProBuilder Data/Default Color Palette.asset\"}"
            },
            {
                "type": "UnityEngine.ProBuilder.SemVer, Unity.ProBuilder, Version=0.0.0.0, Culture=neutral, PublicKeyToken=null",
                "key": "about.identifier",
                "value": "{\"m_Value\":{\"m_Major\":5,\"m_Minor\":0,\"m_Patch\":6,\"m_Build\":-1,\"m_Type\":\"\",\"m_Metadata\":\"\",\"m_Date\":\"\"}}"
            },
            {
                "type": "UnityEngine.ProBuilder.SemVer, Unity.ProBuilder, Version=0.0.0.0, Culture=neutral, PublicKeyToken=null",
                "key": "preferences.version",
                "value": "{\"m_Value\":{\"m_Major\":5,\"m_Minor\":0,\"m_Patch\":6,\"m_Build\":-1,\"m_Type\":\"\",\"m_Metadata\":\"\",\"m_Date\":\"\"}}"
            },
            {
                "type": "UnityEngine.ProBuilder.RectSelectMode, Unity.ProBuilder, Version=0.0.0.0, Culture=neutral, PublicKeyToken=null",
                "key": "editor.dragSelectRectMode",
                "value": "{\"m_Value\":1}"
            },
            {
                "type": "UnityEngine.ProBuilder.SelectionModifierBehavior, Unity.ProBuilder, Version=0.0.0.0, Culture=neutral, PublicKeyToken=null",
                "key": "editor.rectSelectModifier",
                "value": "{\"m_Value\":2}"
            },
            {
                "type": "UnityEngine.ProBuilder.SelectMode, Unity.ProBuilder, Version=0.0.0.0, Culture=neutral, PublicKeyToken=null",
                "key": "editor.selectMode",
                "value": "{\"m_Value\":1}"
            },
            {
                "type": "UnityEngine.ProBuilder.SelectMode, Unity.ProBuilder, Version=0.0.0.0, Culture=neutral, PublicKeyToken=null",
                "key": "editor.lastMeshSelectMode",
                "value": "{\"m_Value\":8}"
            },
            {
                "type": "System.Int32, mscorlib, Version=4.0.0.0, Culture=neutral, PublicKeyToken=b77a5c561934e089",
                "key": "ShapeBuilder.ActiveShapeIndex",
                "value": "{\"m_Value\":2}"
            },
            {
                "type": "System.Int32, mscorlib, Version=4.0.0.0, Culture=neutral, PublicKeyToken=b77a5c561934e089",
                "key": "ShapeBuilder.LastPivotLocation",
                "value": "{\"m_Value\":0}"
            },
            {
                "type": "UnityEngine.ProBuilder.PivotLocation, Unity.ProBuilder, Version=0.0.0.0, Culture=neutral, PublicKeyToken=null",
                "key": "mesh.newShapePivotLocation",
                "value": "{\"m_Value\":1}"
            },
            {
                "type": "UnityEngine.Vector3, UnityEngine.CoreModule, Version=0.0.0.0, Culture=neutral, PublicKeyToken=null",
                "key": "ShapeBuilder.LastPivotPosition",
                "value": "{\"m_Value\":{\"x\":-8.0,\"y\":-2.5,\"z\":6.5}}"
            },
            {
                "type": "UnityEngine.Vector3, UnityEngine.CoreModule, Version=0.0.0.0, Culture=neutral, PublicKeyToken=null",
                "key": "ShapeBuilder.LastSize",
                "value": "{\"m_Value\":{\"x\":16.0,\"y\":5.0,\"z\":-13.0}}"
            },
            {
                "type": "UnityEngine.Vector3, UnityEngine.CoreModule, Version=0.0.0.0, Culture=neutral, PublicKeyToken=null",
                "key": "MoveElements.s_Translation",
                "value": "{\"m_Value\":{\"x\":0.0,\"y\":1.0,\"z\":0.0}}"
            },
            {
                "type": "UnityEngine.Quaternion, UnityEngine.CoreModule, Version=0.0.0.0, Culture=neutral, PublicKeyToken=null",
                "key": "ShapeBuilder.LastRotation",
                "value": "{\"m_Value\":{\"x\":0.0,\"y\":0.0,\"z\":0.0,\"w\":1.0}}"
            },
            {
                "type": "UnityEngine.ProBuilder.Shapes.Shape, Unity.ProBuilder, Version=0.0.0.0, Culture=neutral, PublicKeyToken=null",
                "key": "ShapeBuilder.Plane",
                "value": "{}"
            },
            {
                "type": "UnityEngine.ProBuilder.Shapes.Shape, Unity.ProBuilder, Version=0.0.0.0, Culture=neutral, PublicKeyToken=null",
                "key": "ShapeBuilder.Cube",
                "value": "{}"
            },
            {
                "type": "UnityEngine.Material, UnityEngine.CoreModule, Version=0.0.0.0, Culture=neutral, PublicKeyToken=null",
                "key": "mesh.userMaterial",
                "value": "{\"m_Value\":{\"fileID\":2100000,\"guid\":\"25a9fb42d361f46ad89221f6d301e96e\",\"type\":2}}"
            },
            {
                "type": "UnityEngine.Rendering.ShadowCastingMode, UnityEngine.CoreModule, Version=0.0.0.0, Culture=neutral, PublicKeyToken=null",
                "key": "mesh.shadowCastingMode",
                "value": "{\"m_Value\":1}"
            },
            {
                "type": "UnityEditor.StaticEditorFlags, UnityEditor.CoreModule, Version=0.0.0.0, Culture=neutral, PublicKeyToken=null",
                "key": "mesh.defaultStaticEditorFlags",
                "value": "{\"m_Value\":0}"
            },
            {
                "type": "UnityEngine.ProBuilder.ColliderType, Unity.ProBuilder, Version=0.0.0.0, Culture=neutral, PublicKeyToken=null",
                "key": "mesh.newShapeColliderType",
                "value": "{\"m_Value\":2}"
            },
            {
                "type": "UnityEngine.ProBuilder.UnwrapParameters, Unity.ProBuilder, Version=0.0.0.0, Culture=neutral, PublicKeyToken=null",
                "key": "lightmapping.defaultLightmapUnwrapParameters",
                "value": "{\"m_Value\":{\"m_HardAngle\":88.0,\"m_PackMargin\":20.0,\"m_AngleError\":8.0,\"m_AreaError\":15.0}}"
            },
            {
                "type": "UnityEngine.ProBuilder.ExtrudeMethod, Unity.ProBuilder, Version=0.0.0.0, Culture=neutral, PublicKeyToken=null",
                "key": "editor.extrudeMethod",
                "value": "{\"m_Value\":2}"
            },
            {
                "type": "System.Single, mscorlib, Version=4.0.0.0, Culture=neutral, PublicKeyToken=b77a5c561934e089",
                "key": "uv.uvEditorGridSnapIncrement",
                "value": "{\"m_Value\":0.125}"
            },
            {
                "type": "System.Single, mscorlib, Version=4.0.0.0, Culture=neutral, PublicKeyToken=b77a5c561934e089",
                "key": "ExtrudeFaces.distance",
                "value": "{\"m_Value\":0.5}"
            },
            {
                "type": "System.Single, mscorlib, Version=4.0.0.0, Culture=neutral, PublicKeyToken=b77a5c561934e089",
                "key": "WeldVertices.weldDistance",
                "value": "{\"m_Value\":0.009999999776482582}"
            },
            {
                "type": "UnityEditor.ProBuilder.Actions.OffsetElements+CoordinateSpace, Unity.ProBuilder.Editor, Version=0.0.0.0, Culture=neutral, PublicKeyToken=null",
                "key": "MoveElements.s_CoordinateSpace",
                "value": "{\"m_Value\":0}"
            }
        ]
    }
}